<?xml version="1.0" encoding="UTF-8" standalone="no"?>
<svg
   xmlns:dc="http://purl.org/dc/elements/1.1/"
   xmlns:cc="http://web.resource.org/cc/"
   xmlns:rdf="http://www.w3.org/1999/02/22-rdf-syntax-ns#"
   xmlns:svg="http://www.w3.org/2000/svg"
   xmlns="http://www.w3.org/2000/svg"
   xmlns:sodipodi="http://sodipodi.sourceforge.net/DTD/sodipodi-0.dtd"
   xmlns:inkscape="http://www.inkscape.org/namespaces/inkscape"
   baseProfile="tiny"
   width="100%"
   height="100%"
   viewBox="0 0 48 48"
   id="svg2279"
   sodipodi:version="0.32"
   inkscape:version="0.45pre1"
   sodipodi:docname="qgn_menu_QGazer.svg"
   inkscape:output_extension="org.inkscape.output.svg.inkscape"
   sodipodi:docbase="C:\S60\devices\Nokia_N97_SDK_v1.0\QGazer\QGazer\gfx"
   sodipodi:modified="true"
   version="1.0">
  <metadata
     id="metadata2360">
    <rdf:RDF>
      <cc:Work
         rdf:about="">
        <dc:format>image/svg+xml</dc:format>
        <dc:type
           rdf:resource="http://purl.org/dc/dcmitype/StillImage" />
      </cc:Work>
    </rdf:RDF>
  </metadata>
  <defs
     id="defs2358" />
  <sodipodi:namedview
     inkscape:window-height="721"
     inkscape:window-width="1360"
     inkscape:pageshadow="2"
     inkscape:pageopacity="0.0"
     guidetolerance="10.0"
     gridtolerance="10.0"
     objecttolerance="10.0"
     borderopacity="1.0"
     bordercolor="#666666"
     pagecolor="#ffffff"
     id="base"
     inkscape:zoom="4.2955033"
     inkscape:cx="44"
     inkscape:cy="12.762155"
     inkscape:window-x="0"
     inkscape:window-y="20"
     inkscape:current-layer="svg2279"
     width="48px"
     height="48px" />
  <g
     id="g2281">
    <g
       id="g2283">
      <g
         id="g2285">
        <g
           id="g2287">
          <rect
             width="88"
             height="87.999001"
             id="rect2289"
             x="0"
             y="0"
             style="fill:none" />
        </g>
      </g>
      <g
         id="g2291">
        <linearGradient
           id="XMLID_7_"
           gradientUnits="userSpaceOnUse"
           x1="12.3042"
           y1="18.3799"
           x2="63.411301"
           y2="79.287003">
          <stop
             offset="0"
             style="stop-color:#B3DDFF"
             id="stop2294" />
          <stop
             offset="0.8146"
             style="stop-color:#084296"
             id="stop2296" />
          <stop
             offset="1"
             style="stop-color:#084296"
             id="stop2298" />
        </linearGradient>
        <linearGradient
           id="XMLID_8_"
           gradientUnits="userSpaceOnUse"
           x1="40.827599"
           y1="52.191399"
           x2="16.199699"
           y2="21.1353">
          <stop
             offset="0"
             style="stop-color:#5AA7E0"
             id="stop2303" />
          <stop
             offset="1"
             style="stop-color:#3366CC"
             id="stop2305" />
        </linearGradient>
        <linearGradient
           id="XMLID_9_"
           gradientUnits="userSpaceOnUse"
           x1="60.584999"
           y1="31.875999"
           x2="53.8582"
           y2="45.112499">
          <stop
             offset="0"
             style="stop-color:#5AA7E0"
             id="stop2310" />
          <stop
             offset="1"
             style="stop-color:#3366CC"
             id="stop2312" />
        </linearGradient>
        <path
           id="path2322"
           style="fill:#5aa7e0" />
        <linearGradient
           id="XMLID_10_"
           gradientUnits="userSpaceOnUse"
           x1="29.2085"
           y1="63.683601"
           x2="48.710201"
           y2="56.197601">
          <stop
             offset="0"
             style="stop-color:#5AA7E0"
             id="stop2329" />
          <stop
             offset="0.0056"
             style="stop-color:#5AA7E0"
             id="stop2331" />
          <stop
             offset="0.85"
             style="stop-color:#3366CC"
             id="stop2333" />
          <stop
             offset="1"
             style="stop-color:#3366CC"
             id="stop2335" />
        </linearGradient>
        <linearGradient
           id="XMLID_11_"
           gradientUnits="userSpaceOnUse"
           x1="45.3936"
           y1="59.5186"
           x2="59.0508"
           y2="59.5186">
          <stop
             offset="0"
             style="stop-color:#0046B7"
             id="stop2342" />
          <stop
             offset="1"
             style="stop-color:#3366CC"
             id="stop2344" />
        </linearGradient>
        <linearGradient
           id="XMLID_12_"
           gradientUnits="userSpaceOnUse"
           x1="60.894501"
           y1="68.680702"
           x2="57.2953"
           y2="58.792">
          <stop
             offset="0"
             style="stop-color:#5AA7E0"
             id="stop2349" />
          <stop
             offset="0.4101"
             style="stop-color:#5AA7E0"
             id="stop2351" />
          <stop
             offset="1"
             style="stop-color:#3366CC"
             id="stop2353" />
        </linearGradient>
      </g>
    </g>
  </g>
  <path
     sodipodi:type="star"
     style="fill:#ff7f2a;fill-rule:evenodd;stroke:#000000;stroke-width:1px;stroke-linecap:butt;stroke-linejoin:miter;stroke-opacity:1"
     id="path2378"
     sodipodi:sides="5"
     sodipodi:cx="16.29611"
     sodipodi:cy="52.613159"
     sodipodi:r1="13.08875"
     sodipodi:r2="6.5443754"
     sodipodi:arg1="0.89883316"
     sodipodi:arg2="1.5271517"
     inkscape:flatsided="false"
     inkscape:rounded="0"
     inkscape:randomized="0"
     d="M 24.444165,62.856429 L 16.581646,59.151303 L 9.0720695,63.527765 L 10.166202,54.905118 L 3.6833523,49.115487 L 12.222082,47.491524 L 15.725038,39.536873 L 19.908131,47.155856 L 28.555926,48.029243 L 22.60249,54.361996 L 24.444165,62.856429 z "
     transform="translate(8.1480557,-26.539381)" />
</svg>
