<?xml version="1.0" encoding="UTF-8" standalone="no"?>
<!-- Generator: Adobe Illustrator 10, SVG Export Plug-In . SVG Version: 3.0.0 Build 76)  -->
<svg
   xmlns:ns0="http://ns.adobe.com/SaveForWeb/1.0/"
   xmlns:ns="http://ns.adobe.com/Variables/1.0/"
   xmlns:i="http://ns.adobe.com/AdobeIllustrator/10.0/"
   xmlns:dc="http://purl.org/dc/elements/1.1/"
   xmlns:cc="http://web.resource.org/cc/"
   xmlns:rdf="http://www.w3.org/1999/02/22-rdf-syntax-ns#"
   xmlns:svg="http://www.w3.org/2000/svg"
   xmlns="http://www.w3.org/2000/svg"
   xmlns:xlink="http://www.w3.org/1999/xlink"
   xmlns:sodipodi="http://sodipodi.sourceforge.net/DTD/sodipodi-0.dtd"
   xmlns:inkscape="http://www.inkscape.org/namespaces/inkscape"
   i:viewOrigin="4.8169 43.2656"
   i:rulerOrigin="0 0"
   i:pageBounds="0 44 44 0"
   width="89.245125"
   height="87.954559"
   viewBox="0 0 32.267 42.764"
   overflow="visible"
   enable-background="new 0 0 32.267 42.764"
   xml:space="preserve"
   id="svg2"
   sodipodi:version="0.32"
   inkscape:version="0.45pre1"
   sodipodi:docname="qgn_menu_QGazer.svg"
   inkscape:output_extension="org.inkscape.output.svg.inkscape"
   sodipodi:docbase="C:\S60\devices\Nokia_N97_SDK_v1.0\QGazer\QGazer\gfx"
   version="1.0"
   sodipodi:modified="true"><defs
   id="defs51" /><sodipodi:namedview
   inkscape:window-height="629"
   inkscape:window-width="906"
   inkscape:pageshadow="2"
   inkscape:pageopacity="0.0"
   guidetolerance="10.0"
   gridtolerance="10.0"
   objecttolerance="10.0"
   borderopacity="1.0"
   bordercolor="#666666"
   pagecolor="#ffffff"
   id="base"
   inkscape:zoom="4.4196053"
   inkscape:cx="16.133499"
   inkscape:cy="42.823718"
   inkscape:window-x="194"
   inkscape:window-y="2"
   inkscape:current-layer="switch6"
   width="2.48cm"
   height="2.48cm"
   units="cm" />
	<metadata
   id="metadata4">
		<ns:variableSets>
			<ns:variableSet
   varSetName="binding1"
   locked="none">
				<ns:variables />
				<ns:sampleDataSets>
					</ns:sampleDataSets>
			</ns:variableSet>
		</ns:variableSets>
		<ns0:sfw>
			<ns0:slices />
			<ns0:sliceSourceBounds
   y="0.502"
   x="4.817"
   width="32.267"
   height="42.764"
   bottomLeftOrigin="true" />
		</ns0:sfw>
	<rdf:RDF><cc:Work
     rdf:about=""><dc:format>image/svg+xml</dc:format><dc:type
       rdf:resource="http://purl.org/dc/dcmitype/StillImage" /></cc:Work></rdf:RDF></metadata>
	<switch
   id="switch6"
   transform="matrix(0.645893,0,0,1,-6.0562734,4.0198439e-2)">
		<foreignObject
   requiredExtensions="http://ns.adobe.com/AdobeIllustrator/10.0/"
   x="0"
   y="0"
   width="1"
   height="1"
   id="foreignObject8">
			<i:pgfRef
   xlink:href="#adobe_illustrator_pgf">
			</i:pgfRef>
		</foreignObject>
		<g
   i:extraneous="self"
   id="g10"
   transform="matrix(1.505121,0,0,1,8.3450403,0.1100111)">
			<g
   id="white"
   i:layer="yes"
   i:editable="no"
   i:dimmedPercent="50"
   i:rgbTrio="#4F00FFFF4F00">
			</g>
			<g
   id="consteration"
   i:layer="yes"
   i:dimmedPercent="50"
   i:rgbTrio="#4F008000FFFF">
				<g
   id="g14">
					<path
   i:knockout="Off"
   d="M 25.335,10.198 C 25.335,11.476 24.301,12.511 23.021,12.511 C 21.747,12.511 20.704,11.476 20.704,10.198 C 20.704,8.92 21.747,7.883 23.021,7.883 C 24.301,7.883 25.335,8.92 25.335,10.198 z "
   id="path16"
   style="fill:#ffffff" />
					<path
   i:knockout="Off"
   d="M 22.749,23.174 C 22.749,24.451 21.714,25.488 20.435,25.488 C 19.161,25.488 18.118,24.451 18.118,23.174 C 18.118,21.895 19.16,20.859 20.435,20.859 C 21.713,20.858 22.749,21.895 22.749,23.174 z "
   id="path18"
   style="fill:#ffffff" />
					<path
   i:knockout="Off"
   d="M 20.297,24.551 C 20.297,25.826 19.262,26.863 17.981,26.863 C 16.706,26.863 15.665,25.826 15.665,24.551 C 15.665,23.27 16.706,22.234 17.981,22.234 C 19.262,22.234 20.297,23.27 20.297,24.551 z "
   id="path20"
   style="fill:#ffffff" />
					<path
   i:knockout="Off"
   d="M 17.929,25.826 C 17.929,27.103 16.895,28.138 15.614,28.138 C 14.34,28.138 13.298,27.103 13.298,25.826 C 13.298,24.547 14.34,23.51 15.614,23.51 C 16.895,23.51 17.929,24.547 17.929,25.826 z "
   id="path22"
   style="fill:#ffffff" />
					<path
   i:knockout="Off"
   d="M 15.445,40.451 C 15.445,41.726 14.411,42.763 13.131,42.763 C 11.856,42.763 10.814,41.726 10.814,40.451 C 10.814,39.172 11.856,38.135 13.131,38.135 C 14.411,38.135 15.445,39.172 15.445,40.451 z "
   id="path24"
   style="fill:#ffffff" />
					<path
   i:knockout="Off"
   d="M 32.267,37.975 C 32.267,40.147 30.51,41.907 28.332,41.907 C 26.164,41.907 24.394,40.147 24.394,37.975 C 24.394,35.801 26.164,34.039 28.332,34.039 C 30.51,34.039 32.267,35.801 32.267,37.975 z "
   id="path26"
   style="fill:#ffffff" />
					<path
   i:knockout="Off"
   d="M 9.294,0.25 L 12.09,5.915 L 18.341,6.822 L 13.82,11.235 L 14.889,17.455 L 9.294,14.516 L 3.705,17.455 L 4.772,11.235 L 0.25,6.822 L 6.5,5.915 L 9.294,0.25 z "
   id="path28"
   style="fill:#ffffff;stroke:#ffffff;stroke-width:0.5;stroke-linejoin:round" />
					<g
   id="g30">
						<path
   i:knockout="Off"
   d="M 9.153,11.212 L 15.613,25.824 L 13.125,40.451 L 28.329,37.972 L 20.433,23.173 L 23.019,10.195"
   id="path32"
   style="fill:none;stroke:#ffffff;stroke-width:0.40000001" />
						<path
   i:knockout="Off"
   d="M 12.008,8.945 L 23.019,10.196"
   id="path34"
   style="fill:#0e4054;stroke:#ffffff;stroke-width:0.40000001" />
						<path
   i:knockout="Off"
   d="M 9.337,4.636 L 10.734,7.468 L 13.86,7.922 L 11.599,10.128 L 12.134,13.239 L 9.337,11.77 L 6.542,13.239 L 7.076,10.128 L 4.815,7.921 L 7.94,7.468 L 9.337,4.636 z "
   id="path36"
   style="fill:#bde016;stroke:#bde016;stroke-width:0.5;stroke-linejoin:round" />
						<path
   i:knockout="Off"
   d="M 30.379,37.973 C 30.379,39.104 29.462,40.022 28.328,40.022 C 27.198,40.022 26.281,39.104 26.281,37.973 C 26.281,36.84 27.198,35.924 28.328,35.924 C 29.462,35.924 30.379,36.84 30.379,37.973 z "
   id="path38"
   style="fill:#0e4054" />
						<path
   i:knockout="Off"
   d="M 24.306,10.197 C 24.306,10.907 23.732,11.483 23.021,11.483 C 22.312,11.483 21.734,10.907 21.734,10.197 C 21.734,9.488 22.312,8.91 23.021,8.91 C 23.732,8.911 24.306,9.488 24.306,10.197 z "
   id="path40"
   style="fill:#0e4054" />
						<path
   i:knockout="Off"
   d="M 16.901,25.824 C 16.901,26.531 16.324,27.107 15.614,27.107 C 14.905,27.107 14.33,26.531 14.33,25.824 C 14.33,25.113 14.905,24.539 15.614,24.539 C 16.325,24.539 16.901,25.113 16.901,25.824 z "
   id="path42"
   style="fill:#0e4054" />
						<path
   i:knockout="Off"
   d="M 19.265,24.549 C 19.265,25.26 18.691,25.834 17.981,25.834 C 17.271,25.834 16.696,25.26 16.696,24.549 C 16.696,23.838 17.271,23.264 17.981,23.264 C 18.691,23.264 19.265,23.838 19.265,24.549 z "
   id="path44"
   style="fill:#0e4054" />
						<path
   i:knockout="Off"
   d="M 21.719,23.174 C 21.719,23.883 21.144,24.457 20.434,24.457 C 19.724,24.457 19.148,23.883 19.148,23.174 C 19.148,22.463 19.724,21.887 20.434,21.887 C 21.144,21.887 21.719,22.463 21.719,23.174 z "
   id="path46"
   style="fill:#0e4054" />
						<path
   i:knockout="Off"
   d="M 14.415,40.451 C 14.415,41.158 13.839,41.734 13.129,41.734 C 12.419,41.734 11.843,41.158 11.843,40.451 C 11.843,39.74 12.418,39.162 13.129,39.162 C 13.839,39.162 14.415,39.74 14.415,40.451 z "
   id="path48"
   style="fill:#0e4054" />
					</g>
				</g>
			</g>
		</g>
	</switch>
	<i:pgf>
		
		
	</i:pgf>
</svg>